{
  "assetUuid": "33e0e1d1-6c14-4577-b22d-71ee5e8402b5",
  "assetFilename": "33849107_1852083224814369_6945857394974916608_o.jpg",
  "assetPreviewImage": "http:\/\/jvmintranet.local\/_Resources\/Persistent\/5eea5999b25a993213d60f7f832600d7c4202fa1\/33849107_1852083224814369_6945857394974916608_o-250x167.jpg",
  "assetPreviewSize": {
    "w": 250,
    "h": 167
  }
}