{
  "projects": {
    "filters": [
      {
        "filterName": "",
        "filterValue": ""
      }
    ]
  },
  "clients": {
    "filters": [
      {
        "filterName": "",
        "filterValue": ""
      }
    ]
  },
  "document": {
    "categories": [
      {
        "categoryName": "",
        "categoryValue": ""
      }
    ],
    "filters": [
      {
        "filterName": "",
        "filterValue": ""
      },
      {
        "filterName": "",
        "filterValue": ""
      }
    ]
  },
  "tools": [
    {
      "toolSlug": "",
      "toolName": "",
      "toolLink": "",
      "tooldesc": ""
    },
    {
      "toolSlug": "",
      "toolName": "",
      "toolLink": "",
      "tooldesc": ""
    }
  ],
  "supports": [
    {
      "supportName": "",
      "supportProfession": "",
      "supportPhoto": "",
      "supportPhone": ""

    },
    {
      "supportName": "",
      "supportProfession": "",
      "supportPhoto": "",
      "supportPhone": ""

    },
    {
      "supportName": "",
      "supportProfession": "",
      "supportPhoto": "",
      "supportPhone": ""

    }
  ]
}
