[
  {
    "vertecObjId": "21500",
    "customerColor": "#493737",
    "customerCode": "ACC",
    "__identifier": "32324590-bcc1-4da0-8b23-adc5cb8da101",
    "customerName": "AccorHotels Switzerland SA"
  },
  {
    "vertecObjId": "3588047",
    "customerColor": null,
    "customerCode": "AMA",
    "__identifier": "ad06efeb-761f-4924-81c5-a43a5dcf19e7",
    "customerName": "AMAG Automobil- und Motoren AG"
  },
  {
    "vertecObjId": "3631328",
    "customerColor": null,
    "customerCode": "AMN",
    "__identifier": "fe5fb9a2-f8cf-452a-b339-f37ca8e80602",
    "customerName": "Amnesty International AG"
  },
  {
    "vertecObjId": "48145",
    "customerColor": null,
    "customerCode": "CAI",
    "__identifier": "e3aec494-3a31-42f0-805b-900f778bbfab",
    "customerName": "Cailler"
  },
  {
    "vertecObjId": "21598",
    "customerColor": null,
    "customerCode": "CAM",
    "__identifier": "97ffec5f-c068-4d16-ac74-c688d1674967",
    "customerName": "Campari (Schweiz) AG"
  },
  {
    "vertecObjId": "204970",
    "customerColor": null,
    "customerCode": "FUF",
    "__identifier": "530744e2-7e9e-496d-aca3-2adf6f65b2bf",
    "customerName": "Das Schweizer ElternMagazin Fritz+Fr\u00e4nzi"
  },
  {
    "vertecObjId": "21792",
    "customerColor": null,
    "customerCode": "EMMI",
    "__identifier": "a65dea9b-28ed-4f78-899f-8c4277c921a8",
    "customerName": "Emmi Management AG"
  },
  {
    "vertecObjId": "21753",
    "customerColor": null,
    "customerCode": "EMMI",
    "__identifier": "5cc27eb6-3150-4229-88c6-c97b97889920",
    "customerName": "Emmi Schweiz AG"
  },
  {
    "vertecObjId": "21927",
    "customerColor": null,
    "customerCode": "FIN",
    "__identifier": "bb28e6a6-30e5-4c97-8e94-944722df52b7",
    "customerName": "Findus"
  },
  {
    "vertecObjId": "22044",
    "customerColor": null,
    "customerCode": "GRF",
    "__identifier": "cd8e995e-a846-4b30-805e-851c0d17b81b",
    "customerName": "Graub\u00fcnden Ferien"
  },
  {
    "vertecObjId": "22098",
    "customerColor": null,
    "customerCode": "HEL",
    "__identifier": "31a4d49b-0469-4fd7-ab09-105e1d7a6d05",
    "customerName": "Helsana Versicherungen AG"
  },
  {
    "vertecObjId": "123498",
    "customerColor": null,
    "customerCode": "HEL",
    "__identifier": "faabf7b2-bed2-495f-8c3c-3460d0945c9a",
    "customerName": "Helsana Zusatzversicherungen AG"
  },
  {
    "vertecObjId": "3630426",
    "customerColor": null,
    "customerCode": "HUA",
    "__identifier": "df7e726a-2209-40f5-b1f0-6e17f21b08c6",
    "customerName": "Huawei Technologies Switzerland AG"
  },
  {
    "vertecObjId": "168661",
    "customerColor": null,
    "customerCode": "ICI",
    "__identifier": "0cf7feaf-0fdd-4d34-ba8e-e1de4d16e965",
    "customerName": "Institut f\u00fcr Wirtschaftsinformatik"
  },
  {
    "vertecObjId": "66889",
    "customerColor": null,
    "customerCode": "KIN",
    "__identifier": "21e196ae-6b7c-48c7-957e-e0ea9ce84bac",
    "customerName": "Kinderschutz Schweiz"
  },
  {
    "vertecObjId": "22811",
    "customerColor": null,
    "customerCode": "CAI",
    "__identifier": "e3dd93ec-d9d0-431a-b39d-515f6c965c76",
    "customerName": "Nestl\u00e9 Suisse S.A. - Cailler"
  },
  {
    "vertecObjId": "23575",
    "customerColor": null,
    "customerCode": "BLI",
    "__identifier": "21210cbd-a1ef-4a17-bdad-307e1c6c3e90",
    "customerName": "Ringier AG Blick Gruppe"
  },
  {
    "vertecObjId": "23602",
    "customerColor": null,
    "customerCode": "SAM",
    "__identifier": "a15b75e9-ad75-4e35-a435-c611fb1fe7a1",
    "customerName": "Samsung Electronics Switzerland GmbH"
  },
  {
    "vertecObjId": "23673",
    "customerColor": null,
    "customerCode": "SMP",
    "__identifier": "7b113451-2614-4abd-8f89-ec51716fde06",
    "customerName": "Schweizer Milchproduzenten SMP Genossenschaft"
  },
  {
    "vertecObjId": "3726364",
    "customerColor": null,
    "customerCode": "TES",
    "__identifier": "572ca4e7-0855-423f-9de0-c672ff0d94b7",
    "customerName": "Tourismus Engadin Scuol Samnaun Val M\u00fcstair AG"
  },
  {
    "vertecObjId": "24290",
    "customerColor": null,
    "customerCode": "MJO",
    "__identifier": "f272e661-c1ac-412b-b7b0-82ff4ccad5b5",
    "customerName": "Van de Velde"
  },
  {
    "vertecObjId": "126813",
    "customerColor": null,
    "customerCode": "VOL",
    "__identifier": "dedc2889-6075-4aff-9889-d23475674db4",
    "customerName": "Volvo Car Switzerland AG"
  },
  {
    "vertecObjId": "1388339",
    "customerColor": null,
    "customerCode": "OVO",
    "__identifier": "56e83871-a826-40fc-8cd8-3fa3bfee5e0e",
    "customerName": "Wander AG"
  },
  {
    "vertecObjId": "3759889",
    "customerColor": null,
    "customerCode": "CHT",
    "__identifier": "2f4cb93c-df0e-4c01-adb1-6fc7ee2f24ed",
    "customerName": "Schweiz Tourismus"
  }
]